digraph G {
compound = true;
"21" [ label="21: travel_Travel_Booking_A_Booking_A___C__A__S_" ];
"21" -> "23" [ label="C?Query(String)" ];
"23" [ label="23: " ];
"23" -> "24" [ label="C!Quote(Int)" ];
"24" [ label="24: " ];
"24" -> "21" [ label="S!Dummy()" ];
"21" -> "25" [ label="C?Yes()" ];
"25" [ label="25: " ];
"25" -> "26" [ label="S!Yes()" ];
"26" [ label="26: " ];
"26" -> "22" [ label="C?Bye()" ];
"22" [ label="22: " ];
"21" -> "27" [ label="C?No()" ];
"27" [ label="27: " ];
"27" -> "26" [ label="S!No()" ];
}